#660033
#6C0040
#72024F
#78035F
#7E0470
#830681
#7F0789
#77098E
#6E0B94
#650D99
#5B0F9E
#5111A3
#4613A8
#3B16AC
#2F18B1
#231BB5
#1E25BA
#2137BE
#2449C2
#275CC6
#2B6FCA
#2E82CD
#3494CE
#3CA5CD
#44B4CD
#4CC1CC
#53CCCB
#5BCCC0
#62CCB6
#69CCAE
#70CCA8
#77CCA2
#7ECC9E
#84CD9B
#8BCD9A
#91CE99
#98CF99
#A1D09E
#ABD1A4
#B4D2AA
#BDD4B0
#C4D5B5
#CAD7BB
#D0D9C0
#D5DBC5
#DADDCB
#DEDFD0
#E1E1D4
#E3E2D9
#E6E4DE
#E9E7E2
#EBE9E7
#EEEDEB
#F1F0EF
#F4F4F3
#F8F7F7
#FBFBFB
#FFFFFF
#FFFFFF
#FDFCFC
#FBFAFA
#F9F8F8
#F7F6F6
#F5F4F4
#F3F2F2
#F1F0F0
#F0EDED
#EEEBEB
#ECE9E9
#EBE6E6
#E9E4E4
#E8E1E1
#E6DFDF
#E5DCDC
#E3DADA
#E2D7D7
#E1D5D5
#DFD2D2
#DECFCF
#DDCCCC
#DCCACA
#DBC7C7
#D9C4C4
#D8C1C1
#D7BEBE
#D6BBBB
#D5B8B8
#D4B5B5
#D4B2B2
#D3AFAF
#D2ACAC
#D1A8A8
#D0A5A5
#D0A2A2
#CF9F9F
#CE9B9B
#CE9898
#CD9494
#CD9191
#CC8D8D
#CC8A8A
#CB8686
#CB8383
#CB7F7F
#CA7B7B
#CA7878
#CA7474
#CA7070
#CA6C6C
#C96868
#C96464
#C96060
#C95C5C
#C95858
#CA5454
#CA5050
#CA4C4C
#CA4848
#CA4444
#CA3F3F
#CB3B3B
#CB3737
#CC3333
#CC3333
#CC3A32
#CD4131
#CD4931
#CE5130
#CF592F
#CF612F
#D0692E
#D1712D
#D17A2D
#D2822C
#D28B2C
#D3942B
#D49C2A
#D4A62A
#D5AF29
#D6B828
#D6C228
#D7CB27
#D7D527
#D1D826
#C9D925
#C0D925
#B7DA24
#AEDB23
#A5DB23
#9BDC22
#92DD21
#88DD21
#7EDE20
#74DE20
#6ADF1F
#60E01E
#56E01E
#4CE11D
#41E21C
#36E21C
#2BE31B
#21E31B
#1AE41E
#19E528
#19E532
#18E63D
#17E747
#17E751
#16E85C
#16E867
#15E972
#14EA7D
#14EA88
#13EB93
#12EC9E
#12ECAA
#11EDB6
#10EEC1
#10EECD
#0FEFD9
#0FEFE5
#0EEEF0
#0DE3F1
#0DD8F1
#0CCCF2
#0BC1F3
#0BB5F3
#0AA9F4
#0A9DF4
#0991F5
#0885F6
#0879F6
#076CF7
#0660F8
#0653F8
#0546F9
#0539F9
#042CFA
#031FFB
#0311FB
#0204FC
#0D01FD
#1901FD
#2600FE
#3300FF
#3300FF
#2B00FE
#2400FD
#1D00FC
#1600FC
#0F00FB
#0800FA
#0100F9
#0005F9
#000CF8
#0013F7
#001AF6
#0021F6
#0027F5
#002EF4
#0035F4
#003BF3
#0042F2
#0048F1
#004FF1
#0055F0
#005CEF
#0062EE
#0068EE
#006FED
#0075EC
#007BEC
#0081EB
#0088EA
#008EE9
#0094E9
#009AE8
#00A0E7
#00A6E6
#00ACE6
#00B1E5
#00B7E4
#00BDE4
#00C3E3
#00C8E2
#00CEE1
#00D4E1
#00D9E0
#00DFDF
#00DED9
#00DED2
#00DDCB
#00DCC4
#00DCBD
#00DBB7
#00DAB0
#00D9A9
#00D9A3
#00D89C
#00D796
#00D68F
#00D689
#00D582
#00D47C
#00D475
#00D36F
#00D269
#00D163
#00D15D
#00D056
#00CF50
#00CE4A
#00CE44
#00CD3E
#00CC38
#00CC33
#00CC33
#00CE29
#00D020
#00D317
#00D50D
#00D703
#06DA00
#10DC00
#1BDE00
#25E100
#30E300
#3CE600
#47E800
#53EA00
#5FED00
#6BEF00
#77F100
#84F400
#90F600
#9DF900
#ABFB00
#B8FD00
#C5FF01
#D1FE03
#DDFF05
#E9FE08
#F5FF0A
#FFFD0D
#FFF20F
#FFE711
#FFDC14
#FFD216
#FEC818
#FFBE1B
#FFB41D
#FFAA20
#FFA122
#FF9824
#FF8F27
#FE8629
#FF7E2B
#FF752E
#FF6D30
#FF6633
#FF6633
